id,timestamp,current,voltage,frequency
1,2020-04-15T11:30:00,0,5,50
2,2020-04-15T11:30:01,0.5,5,50
3,2020-04-15T11:30:02,1,5,50
4,2020-04-15T11:30:03,1.5,5,50
5,2020-04-15T11:30:04,2,5,50
6,2020-04-15T11:30:05,2.5,5,50
7,2020-04-15T11:30:06,3,5,50
8,2020-04-15T11:30:07,1.5,5,50
9,2020-04-15T11:30:08,0,5,50
10,2020-04-15T11:30:09,0,5,50
11,2020-04-15T11:30:10,0,5,50
12,2020-04-15T11:30:11,0.3,5,50
13,2020-04-15T11:30:12,0.6,5,50
14,2020-04-15T11:30:13,0.9,5,50
15,2020-04-15T11:30:14,1.2,5,50
16,2020-04-15T11:30:15,1.2,5,50
17,2020-04-15T11:30:16,0,5,50
18,2020-04-15T11:30:17,0,4.5,50
19,2020-04-15T11:30:18,0,4.5,50
20,2020-04-15T11:30:19,0,5,50
21,2020-04-15T11:30:20,0,5,50
22,2020-04-15T11:30:21,0,4,50
23,2020-04-15T11:30:22,0,4,50
24,2020-04-15T11:30:23,0,5,50
25,2020-04-15T11:30:24,0.5,5,50
26,2020-04-15T11:30:25,1,5,50
27,2020-04-15T11:30:26,1.5,5,50
28,2020-04-15T11:30:27,2,4.5,50
29,2020-04-15T11:30:28,2,4.5,50
30,2020-04-15T11:30:29,1,5,50
31,2020-04-15T11:30:30,0,5,50
32,2020-04-15T11:30:31,0,5,50
33,2020-04-15T11:30:32,0.3,5,50
34,2020-04-15T11:30:33,0.6,5,50
35,2020-04-15T11:30:34,0.9,4.5,50
36,2020-04-15T11:30:35,0.3,5,50
37,2020-04-15T11:30:36,0,5,50
38,2020-04-15T11:30:37,0,5,50
39,2020-04-15T11:30:38,0.5,5,50
40,2020-04-15T11:30:39,1,5,50
41,2020-04-15T11:30:40,1.5,5,50
42,2020-04-15T11:30:41,1.5,5,50
43,2020-04-15T11:30:42,0.5,5,50
44,2020-04-15T11:30:43,0,5,50
45,2020-04-15T11:30:44,0,5,50
46,2020-04-15T11:30:45,0,5,50
47,2020-04-15T11:30:46,0,4.5,50
48,2020-04-15T11:30:47,0,4.5,50
49,2020-04-15T11:30:48,0,5,50
50,2020-04-15T11:30:49,0,5,50